{
  "data": [
    {
      "id": "i0LAkK8hbNPbRL5C9I5vew",
      "type": "quote",
      "attributes": {
        "quote_number": "3",
        "title": "some-string",
        "partner_name": "some-string",
        "partner_detail": "",
        "office_name": "未設定",
        "office_detail": "some-string",
        "subtotal": "252.0",
        "total_price": "272.0",
        "excise_price": "20.0",
        "note": "",
        "memo": "",
        "quote_date": "2018-07-17",
        "expired_date": "2018-07-31",
        "created_at": "2018-07-17T12:30:00.000+09:00",
        "updated_at": "2018-07-17T12:30:00.000+09:00",
        "operator_id": "cqOAYGirucwN-IWVnLuRaw",
        "partner_id": "N5yLO_aNpvuekQdvLI_ptA",
        "department_id": "N5yLO_aNpvuekQdvLI_ptA",
        "member_id": "i9YtwxXR-UIa2fpsyoTMUA",
        "member_name": "",
        "document_name": "",
        "partner_name_suffix": "御中",
        "tags": [],
        "pdf_url": "https://invoice.moneyforward.com/api/v2/quotes/i0LAkK8hbNPbRL5C9I5vew.pdf",
        "is_locked": false,
        "is_downloaded": false,
        "order_status": "default",
        "transmit_status": "default",
        "posting_status": "default",
        "deduct_price": "0.0"
      },
      "relationships": {
        "items": {
          "data": [
            {
              "id": "NNCros37ZYchAWdKuc4SfQ",
              "type": "quote_item"
            }
          ]
        }
      }
    }
  ],
  "included": [
    {
      "id": "NNCros37ZYchAWdKuc4SfQ",
      "type": "quote_item",
      "attributes": {
        "item_code": "",
        "name": "some-string",
        "detail": "",
        "quantity": "21.0",
        "unit_price": "12.0",
        "unit": "",
        "price": "252.0",
        "is_excise": true,
        "disp_order": 0,
        "created_at": "2018-07-17T12:30:00.000+09:00",
        "updated_at": "2018-07-17T12:30:00.000+09:00",
        "is_deduct": false
      }
    }
  ],
  "meta": {
    "total_count": 40,
    "total_pages": 40,
    "current_page": 2,
    "per_page": 1
  }
}
