{
  "data": [
    {
      "id": "cqOAYGirucwN-IWVnLuRaw",
      "type": "sent_history",
      "attributes": {
	"operator_id": "cqOAYGirucwN-IWVnLuRaw",
	"type": "メール",
	"document_type": "請求書",
	"document_id": "cqOAYGirucwN-IWVnLuRaw",
	"from": "",
	"to": "sample@example.com",
	"cc": "",
	"sent_at": "2018-07-09T16:36:29.000+09:00"
      }
    }
  ],
  "meta": {
    "total_count": 37,
    "total_pages": 37,
    "current_page": 1,
    "per_page": "1"
  }
}
