{
  "data": [
    {
      "id": "cqOAYGirucwN-IWVnLuRaw",
      "type": "partner",
      "attributes": {
	"code": "",
	"name": "fasdkj",
	"name_kana": "",
	"name_suffix": "",
	"memo": "",
	"created_at": "2018-07-09T12:15:34.000+09:00",
	"updated_at": "2018-10-03T13:48:57.000+09:00"
      },
      "relationships": {
	"departments": {
	  "data": [
	    {
	      "id": "cqOAYGirucwN-IWVnLuRaw",
	      "type": "department"
	    }
	  ]
	}
      }
    }
  ],
  "included": [
    {
      "id": "cqOAYGirucwN-IWVnLuRaw",
      "type": "department",
      "attributes": {
	"zip": null,
	"tel": null,
	"prefecture": null,
	"address1": null,
	"address2": null,
	"person_name": null,
	"person_title": null,
	"name": null,
	"email": null,
	"cc_emails": null,
	"created_at": "2018-07-09T12:15:34.000+09:00",
	"updated_at": "2018-07-09T12:15:34.000+09:00"
      }
    }
  ],
  "meta": {
    "total_count": 10,
    "total_pages": 10,
    "current_page": 1,
    "per_page": "1"
  }
}
