{
  "data": [
    {
      "id": "cqOAYGirucwN-IWVnLuRaw",
      "type": "item",
      "attributes": {
	"item_code": "",
	"name": "ホゲ",
	"detail": "",
	"quantity": "3.0",
	"unit_price": "500000.0",
	"unit": "",
	"price": "1500000.0",
	"is_excise": true,
	"created_at": "2018-07-09T15:30:57.000+09:00",
	"updated_at": "2018-07-09T15:30:57.000+09:00",
	"is_deduct": false
      }
    }
  ],
  "meta": {
    "total_count": 17,
    "total_pages": 17,
    "current_page": 1,
    "per_page": "1"
  }
}
